mtlname="I_glow_01"
Base_TexMap_DDNA=""
Base_TexMap_WDA=""
MasterGloss="205"
DirtR=""
DirtG=""
DirtB=""
BL1_TintR=""
BL1_TintG=""
BL1_TintB=""
WL1_TintR=""
WL1_TintG=""
WL1_TintB=""
Decal_Gloss=""
BL1_Gloss=""
WL1_Gloss=""
BL1_UVTiling=""
WL1_UVTiling=""
BL1_Path="blank"
WL1_Path="blank"
